,title,date,ticker,company,spotPrice
0,Australian Vanadium secures LoI with China’s Yanshan Vanadium Titanium regarding technical services and offtake,"January 15, 2020",AVL,AUSTRALIAN VANADIUM,$0
1,Initial drilling confirms presence of high-grade bauxite occurrence at Lindian Resources’ Gaoual project,"January 15, 2020",LIN,LINDIAN RESOURCES,$0
2,Kalamazoo welcomes Eric Sprott and Novo Resources’ $8m investment,"January 15, 2020",XXX,?,$0
3,Galan Lithium unearths ‘remarkable’ highest-ever lithium brine grade at Hombre Muerto,"January 15, 2020",GLN,GALAN LITHIUM,$0
4,New World Resources hopes to breathe new life in historic Antler copper mine,"January 14, 2020",FEL,FE,$0
5,Oklo Resources’ gold discoveries at west Mali project continue,"January 14, 2020",OKU,OKLO RESOURCES,$0
6,Lithium Australia advances patents for proprietary lithium phosphate process,"January 14, 2020",XXX,?,$0
7,Castillo confirms presence of supergene ore at Mount Isa copper assets,"January 14, 2020",XXX,?,$0
8,Imugene granted HER-Vaxx immunotherapy patent in the United States,"January 14, 2020",IMU,IMUGENE,$0
9,Immutep expands clinical trial for lead drug candidate efti,"January 9, 2020",IMM,IMMUTEP,$0
10,Little Green Pharma eyes ASX listing to grow medical cannabis exports,"January 9, 2020",ASX,ASX,$0
11,Cann Group and IDT Australia move closer to bringing medicinal cannabis products to market,"January 7, 2020",CAN,CANN ,$0
12,CannPal secures commercial rights to CSIRO’s MicroMAX technology,"January 6, 2020",XXX,?,$0
13,Prescient Therapeutics receives encouraging efficacy results for leading cancer drug candidate PTX-200,"December 23, 2019",PTX,PRESCIENT THERAPEUTICS,$0
14,Cogstate achieves best half year on record for clinical trial sales,"December 20, 2019",CGS,COGSTATE,$0
15,Cann Group and IDT Australia prepare for commercial launch of medicinal cannabis product,"December 19, 2019",CAN,CANN ,$0
16,Family Zone Cyber Safety experiences strong growth in education sales in US and Australia,"January 13, 2020",FZO,FAMILY ZONE CYBER SAFETY,$0
17,Buddy Technologies unveils new products at Consumer Electronics Show in Las Vegas,"January 8, 2020",BUD,BUDDY TECHNOLOGIES,$0
18,K2fly kicks off new year with record raised invoices,"January 7, 2020",K2F,K2FLY,$0
19,Lithium Australia’s VSPC to commercialise cathode technology in China,"January 6, 2020",XXX,?,$0
20,Integrated Green Energy to receive US$39.6m to begin construction of US fuel site,"January 3, 2020",IGL,IVE ,$0
21,Alcidion to roll-out Patientrack across Taunton and Somerset NHS Foundation Trust,"December 19, 2019",ALC,ALCIDION ,$0
22,"iCetana prepares to join ASX tech stocks, IPO proceeds to advance AI surveillance software","December 12, 2019",ASX,ASX,$0
23,CCP Technologies secures funding from existing shareholders for new IoT operations in China,"December 11, 2019",CT1,CCP TECHNOLOGIES,$0
24,Energy One expands into EU with eZ-nergy acquisition,"December 24, 2019",EOL,ENERGY ONE,$0
25,Winchester Energy’s latest Mustang well achieves ‘excellent’ oil and gas shows,"December 23, 2019",WEL,WINCHESTER ENERGY,$0
26,Warrego Energy acquires stake in Spanish integrated gas project,"December 17, 2019",WGO,WARREGO ENERGY,$0
27,Silex inks deal to buy GE-Hitachi’s stake in uranium technology company,"December 16, 2019",XXX,?,$0
28,XCD Energy pegs more Alaskan ground ahead of maiden oil resource,"December 16, 2019",XXX,?,$0
29,XCD Energy participates in Alaska’s most successful North Slope oil and gas land grab in over a...,"December 13, 2019",XXX,?,$0
30,Central Petroleum to supply Mereenie gas to AGL Energy,"December 11, 2019",CTP,CENTRAL PETROLEUM,$0
31,Winchester Energy encounters further oil in Lightning well,"December 11, 2019",WEL,WINCHESTER ENERGY,$0
32,Wisr continues expansion as loan book grows to over $160m,"January 13, 2020",WZR,WISR,$0
33,Woolworths to stock ECS Botanics’ hemp-infused soups,"January 10, 2020",WOW,WOOLWORTHS ,$0
34,Catapult secures landmark deal with Colombian football league,"January 9, 2020",XXX,?,$0
35,Fluence Corporation begins construction of Ivory Coast plant with financing now locked-in,"January 8, 2020",FLC,FLUENCE CORPORATION,$0
36,Cronos Australia set to develop CBD-based products in partnership with Sukin co-founders,"December 23, 2019",XXX,?,$0
37,Lithium Australia’s subsidiary Envirostream ships mixed metal dust to South Korea’s SungEel Hitech,"December 23, 2019",SGO,STREAM ,$0
38,AusCann fast-tracks commercialisation of cannabinoid capsules,"December 18, 2019",CAN,CANN ,$0
39,Talga Resources trials Talcoat’s performance in coating for cargo ship,"December 17, 2019",ALQ,ALS,$0
